[
  {
    "buyouts": [
      {
        "amount": 45,
        "price": 7,
        "product_id": 2
      }
    ],
    "cartageDate": "2016-08-04 00:00:00",
    "cartage_id": 20144,
    "cartage_local_id": 6,
    "containers": [
      {
        "amount": 0,
        "product_id": 33
      },
      {
        "amount": 0,
        "product_id": 43
      },
      {
        "amount": 0,
        "product_id": 26
      },
      {
        "amount": 0,
        "product_id": 44
      },
      {
        "amount": 0,
        "product_id": 65
      },
      {
        "amount": 0,
        "product_id": 68
      }
    ],
    "dispatcherNote": "",
    "expenseCashNumber": 31508510010,
    "handled": "HANDLED",
    "isBuyoutInvoiced": false,
    "isSellInvoiced": false,
    "paidClaim": 0,
    "paidCommitment": 0,
    "pickup_record_local_id": 161,
    "premise_id": 8510,
    "sells": [],
    "time": "2016-08-04 14:12:37"
  }
]