[
  {
    "buyouts": [
      {
        "amount": 25,
        "price": 3.60,
        "product_id": 2
      }
    ],
    "cartageDate": "2016-08-04 00:00:00",
    "cartage_id": 20144,
    "cartage_local_id": 6,
    "containers": [
      {
        "amount": 0,
        "product_id": 33
      },
      {
        "amount": 0,
        "product_id": 43
      },
      {
        "amount": 0,
        "product_id": 26
      },
      {
        "amount": 0,
        "product_id": 44
      },
      {
        "amount": 0,
        "product_id": 65
      },
      {
        "amount": 0,
        "product_id": 68
      }
    ],
    "dispatcherNote": "",
    "expenseCashNumber": 31508472020,
    "handled": "HANDLED",
    "incomeCashNumber": 1155401692,
    "isBuyoutInvoiced": false,
    "isSellInvoiced": false,
    "paidClaim": 0,
    "paidCommitment": 0,
    "pickup_record_local_id": 155,
    "premise_id": 8472,
    "sells": [
      {
        "amount": 1,
        "price": 500.00,
        "product_id": 30
      },
      {
        "amount": 2,
        "price": 55.00,
        "product_id": 50
      },
      {
        "amount": 1,
        "price": 59.00,
        "product_id": 49
      },
      {
        "amount": 20,
        "price": 37.00,
        "product_id": 55
      }
    ],
    "time": "2016-08-04 12:05:40"
  }
]