[
  {
    "buyouts": [],
    "cartageDate": "2016-08-04 00:00:00",
    "cartage_id": 20144,
    "cartage_local_id": 6,
    "containers": [
      {
        "amount": 0,
        "product_id": 33
      },
      {
        "amount": 0,
        "product_id": 43
      },
      {
        "amount": 0,
        "product_id": 26
      },
      {
        "amount": 0,
        "product_id": 44
      },
      {
        "amount": 0,
        "product_id": 65
      },
      {
        "amount": 0,
        "product_id": 68
      }
    ],
    "dispatcherNote": "udelana nova smlouva",
    "handled": "SKIPPED",
    "isBuyoutInvoiced": false,
    "isSellInvoiced": false,
    "locationAccuracy": 25.0,
    "locationLatitude": 50.54529338,
    "locationLongitude": 14.12448636,
    "paidClaim": 0,
    "paidCommitment": 0,
    "pickup_record_local_id": 162,
    "premise_id": 23647,
    "sells": [],
    "time": "2016-08-04 14:05:30"
  }
]