Array
(
    [__className] => RestResponse
    [status] => 200
    [total] => 69
    [data] => Array
        (
            [0] => Array
                (
                    [__className] => Article
                    [name] => Použitý olej - L
                    [id] => 1
                    [short_name] => Použitý olej
                    [unit] => lt
                    [vat] => 0.21
                    [direction] => 1
                    [default_price] => 4
                    [package] => 50
                    [container] => 0
                    [deleted] => 
                    [order] => 1
                )

            [1] => Array
                (
                    [__className] => Article
                    [name] => Použitý olej a tuk - KG
                    [id] => 2
                    [short_name] => Olej a tuk
                    [unit] => kg
                    [vat] => 0.21
                    [direction] => 1
                    [default_price] => 2
                    [package] => 46
                    [container] => 0
                    [deleted] => 
                    [order] => 2
                )

            [2] => Array
                (
                    [__className] => Article
                    [name] => Balený olej
                    [id] => 3
                    [short_name] => karolina
                    [unit] => lt
                    [vat] => 0.15
                    [direction] => 0
                    [default_price] => 28.5
                    [package] => 10
                    [container] => 0
                    [deleted] => 
                    [order] => 12
                )

            [3] => Array
                (
                    [__className] => Article
                    [name] => Stáčený olej
                    [id] => 4
                    [short_name] => stáč. olej
                    [unit] => lt
                    [vat] => 0.15
                    [direction] => 0
                    [default_price] => 20
                    [package] => 10
                    [container] => 0
                    [deleted] => 
                    [order] => 13
                )

            [4] => Array
                (
                    [__className] => Article
                    [name] => Mycí prostředek
                    [id] => 5
                    [short_name] => mycí prost.
                    [unit] => litr
                    [vat] => 0.21
                    [direction] => 0
                    [default_price] => 16.5
                    [package] => 1
                    [container] => 0
                    [deleted] => 1
                    [order] => 0
                )

            [5] => Array
                (
                    [__className] => Article
                    [name] => Univerzální mycí prostředek FIALKA - 5 L
                    [id] => 6
                    [short_name] => FIALKA
                    [unit] => litr
                    [vat] => 0.21
                    [direction] => 0
                    [default_price] => 57.5
                    [package] => 1
                    [container] => 0
                    [deleted] => 1
                    [order] => 0
                )

            [6] => Array
                (
                    [__className] => Article
                    [name] => Univerzální mycí prostředek PRIMONA - 5L
                    [id] => 7
                    [short_name] => PRIMONA
                    [unit] => litr
                    [vat] => 0.21
                    [direction] => 0
                    [default_price] => 57.5
                    [package] => 1
                    [container] => 0
                    [deleted] => 1
                    [order] => 0
                )

            [7] => Array
                (
                    [__className] => Article
                    [name] => Fritovací olej DK OIL - 10 L
                    [id] => 8
                    [short_name] => DK OIL 10 L
                    [unit] => lt
                    [vat] => 0.15
                    [direction] => 0
                    [default_price] => 29.57
                    [package] => 10
                    [container] => 0
                    [deleted] => 
                    [order] => 4
                )

            [8] => Array
                (
                    [__className] => Article
                    [name] => Fritovací olej APETOL - 10 L
                    [id] => 9
                    [short_name] => APETOL 10 L
                    [unit] => lt
                    [vat] => 0.15
                    [direction] => 0
                    [default_price] => 31.58
                    [package] => 10
                    [container] => 0
                    [deleted] => 
                    [order] => 5
                )

            [9] => Array
                (
                    [__className] => Article
                    [name] => Fritovací olej APETOL - 50 L
                    [id] => 10
                    [short_name] => APETOL 50 L
                    [unit] => lt
                    [vat] => 0.15
                    [direction] => 0
                    [default_price] => 28.95
                    [package] => 50
                    [container] => 0
                    [deleted] => 
                    [order] => 6
                )

            [10] => Array
                (
                    [__className] => Article
                    [name] => Rostlinný olej 10 L
                    [id] => 11
                    [short_name] => RO 10 L
                    [unit] => lt
                    [vat] => 0.15
                    [direction] => 0
                    [default_price] => 29.82
                    [package] => 10
                    [container] => 0
                    [deleted] => 
                    [order] => 7
                )

            [11] => Array
                (
                    [__className] => Article
                    [name] => Fritovací olej Řepka/Palma - 10 L
                    [id] => 12
                    [short_name] => Řep/Pal 10 L
                    [unit] => lt
                    [vat] => 0.15
                    [direction] => 0
                    [default_price] => 29.82
                    [package] => 10
                    [container] => 0
                    [deleted] => 
                    [order] => 8
                )

            [12] => Array
                (
                    [__className] => Article
                    [name] => Palmový tuk DR. OIL'S - 10 L
                    [id] => 13
                    [short_name] => PALMA 10 L
                    [unit] => lt
                    [vat] => 0.15
                    [direction] => 0
                    [default_price] => 33.91
                    [package] => 10
                    [container] => 0
                    [deleted] => 
                    [order] => 9
                )

            [13] => Array
                (
                    [__className] => Article
                    [name] => Mycí prostředek FIALKA - 5 L
                    [id] => 14
                    [short_name] => FIALKA 5 L
                    [unit] => lt
                    [vat] => 0.21
                    [direction] => 0
                    [default_price] => 11.41
                    [package] => 5
                    [container] => 0
                    [deleted] => 
                    [order] => 15
                )

            [14] => Array
                (
                    [__className] => Article
                    [name] => Mycí prostředek PRIMONA - 5 L
                    [id] => 15
                    [short_name] => PRIMONA 5 L
                    [unit] => lt
                    [vat] => 0.21
                    [direction] => 0
                    [default_price] => 11.41
                    [package] => 5
                    [container] => 0
                    [deleted] => 
                    [order] => 16
                )

            [15] => Array
                (
                    [__className] => Article
                    [name] => Dezinfekční pr. BADEX -  5 L
                    [id] => 16
                    [short_name] => BADEX 5 L
                    [unit] => lt
                    [vat] => 0.21
                    [direction] => 0
                    [default_price] => 13
                    [package] => 5
                    [container] => 0
                    [deleted] => 
                    [order] => 17
                )

            [16] => Array
                (
                    [__className] => Article
                    [name] => Tekuté mýdlo s glycerinem - 5 L
                    [id] => 17
                    [short_name] => MÝDLO 5 L
                    [unit] => lt
                    [vat] => 0.21
                    [direction] => 0
                    [default_price] => 13.17
                    [package] => 5
                    [container] => 0
                    [deleted] => 
                    [order] => 18
                )

            [17] => Array
                (
                    [__className] => Article
                    [name] => WC čistící gel - 5 L
                    [id] => 18
                    [short_name] => WC 5 L
                    [unit] => lt
                    [vat] => 0.21
                    [direction] => 0
                    [default_price] => 16.5
                    [package] => 5
                    [container] => 0
                    [deleted] => 
                    [order] => 19
                )

            [18] => Array
                (
                    [__className] => Article
                    [name] => WC čistící gel - 750 ml
                    [id] => 19
                    [short_name] => WC 750 ml
                    [unit] => ks
                    [vat] => 0.21
                    [direction] => 0
                    [default_price] => 24.16
                    [package] => 1
                    [container] => 0
                    [deleted] => 
                    [order] => 20
                )

            [19] => Array
                (
                    [__className] => Article
                    [name] => Tekutý čistící písek 5 L
                    [id] => 20
                    [short_name] => PÍSEK 5 L
                    [unit] => lt
                    [vat] => 0.21
                    [direction] => 0
                    [default_price] => 20
                    [package] => 5
                    [container] => 0
                    [deleted] => 
                    [order] => 21
                )

            [20] => Array
                (
                    [__className] => Article
                    [name] => Papírové ručníky ZZ - 5000 ks
                    [id] => 21
                    [short_name] => ZZ 5000 ks
                    [unit] => bal.
                    [vat] => 0.21
                    [direction] => 0
                    [default_price] => 250
                    [package] => 1
                    [container] => 0
                    [deleted] => 
                    [order] => 26
                )

            [21] => Array
                (
                    [__className] => Article
                    [name] => Papírové ubrousky  30x30 - 5000 ks
                    [id] => 22
                    [short_name] => PU 5000 ks
                    [unit] => bal.
                    [vat] => 0.21
                    [direction] => 0
                    [default_price] => 415
                    [package] => 1
                    [container] => 0
                    [deleted] => 
                    [order] => 27
                )

            [22] => Array
                (
                    [__className] => Article
                    [name] => Papírové ubrousky  30x30 - 3200 ks
                    [id] => 23
                    [short_name] => PU krabice
                    [unit] => bal.
                    [vat] => 0.21
                    [direction] => 0
                    [default_price] => 332
                    [package] => 1
                    [container] => 0
                    [deleted] => 
                    [order] => 28
                )

            [23] => Array
                (
                    [__className] => Article
                    [name] => Toaletní papír JUMBO - 6 ks
                    [id] => 24
                    [short_name] => JUMBO 6 ks
                    [unit] => bal.
                    [vat] => 0.21
                    [direction] => 0
                    [default_price] => 82.5
                    [package] => 1
                    [container] => 0
                    [deleted] => 
                    [order] => 29
                )

            [24] => Array
                (
                    [__className] => Article
                    [name] => Toaletní papír 400 útržků - 64 ks
                    [id] => 25
                    [short_name] => TP 64 ks
                    [unit] => bal.
                    [vat] => 0.21
                    [direction] => 0
                    [default_price] => 174.16
                    [package] => 1
                    [container] => 0
                    [deleted] => 
                    [order] => 30
                )

            [25] => Array
                (
                    [__className] => Article
                    [name] => barel 50l
                    [id] => 26
                    [short_name] => barel 50l
                    [unit] => ks
                    [vat] => 0.21
                    [direction] => 0
                    [default_price] => 300
                    [package] => 1
                    [container] => 1
                    [deleted] => 
                    [order] => 41
                )

            [26] => Array
                (
                    [__className] => Article
                    [name] => kanystr 5l
                    [id] => 27
                    [short_name] => kan. 5l
                    [unit] => ks
                    [vat] => 0.21
                    [direction] => 0
                    [default_price] => 125
                    [package] => 1
                    [container] => 0
                    [deleted] => 
                    [order] => 44
                )

            [27] => Array
                (
                    [__className] => Article
                    [name] => MIDI
                    [id] => 28
                    [short_name] => MIDI
                    [unit] => bal.
                    [vat] => 0.21
                    [direction] => 0
                    [default_price] => 120
                    [package] => 1
                    [container] => 0
                    [deleted] => 
                    [order] => 31
                )

            [28] => Array
                (
                    [__className] => Article
                    [name] => MENU BOX 3 
                    [id] => 29
                    [short_name] => MENU BOX 3
                    [unit] => bal.
                    [vat] => 0.21
                    [direction] => 0
                    [default_price] => 415
                    [package] => 1
                    [container] => 0
                    [deleted] => 
                    [order] => 35
                )

            [29] => Array
                (
                    [__className] => Article
                    [name] => MENU BOX 2
                    [id] => 30
                    [short_name] => MENU BOX 2
                    [unit] => bal.
                    [vat] => 0.21
                    [direction] => 0
                    [default_price] => 415
                    [package] => 1
                    [container] => 0
                    [deleted] => 
                    [order] => 34
                )

            [30] => Array
                (
                    [__className] => Article
                    [name] => Extra virgin Glafkos 3L
                    [id] => 31
                    [short_name] => Glafkos 3L
                    [unit] => lt
                    [vat] => 0.15
                    [direction] => 0
                    [default_price] => 393.87
                    [package] => 3
                    [container] => 0
                    [deleted] => 
                    [order] => 25
                )

            [31] => Array
                (
                    [__className] => Article
                    [name] => Extra virgin Glafkos 1L
                    [id] => 32
                    [short_name] => Glafkos 1L
                    [unit] => ks
                    [vat] => 0.15
                    [direction] => 0
                    [default_price] => 157.02
                    [package] => 1
                    [container] => 0
                    [deleted] => 
                    [order] => 24
                )

            [32] => Array
                (
                    [__className] => Article
                    [name] => Kohout
                    [id] => 33
                    [short_name] => Kohout
                    [unit] => ks
                    [vat] => 0.21
                    [direction] => 0
                    [default_price] => 100
                    [package] => 1
                    [container] => 1
                    [deleted] => 
                    [order] => 39
                )

            [33] => Array
                (
                    [__className] => Article
                    [name] => DÁREK
                    [id] => 67
                    [short_name] => DÁREK
                    [unit] => ks
                    [vat] => 0.15
                    [direction] => 0
                    [default_price] => 0.88
                    [package] => 1
                    [container] => 0
                    [deleted] => 
                    [order] => 36
                )

            [34] => Array
                (
                    [__className] => Article
                    [name] => DÁREK
                    [id] => 69
                    [short_name] => DÁREK
                    [unit] => ks
                    [vat] => 0.15
                    [direction] => 0
                    [default_price] => 0.88
                    [package] => 0
                    [container] => 0
                    [deleted] => 
                    [order] => 37
                )

            [35] => Array
                (
                    [__className] => Article
                    [name] => DÁREK
                    [id] => 71
                    [short_name] => DÁREK
                    [unit] => ks
                    [vat] => 0.15
                    [direction] => 0
                    [default_price] => 0.88
                    [package] => 0
                    [container] => 0
                    [deleted] => 
                    [order] => 38
                )

            [36] => Array
                (
                    [__className] => Article
                    [name] => Prohlášení ISCC
                    [id] => 73
                    [short_name] => Prohl. ISCC
                    [unit] => ISCC
                    [vat] => 0
                    [direction] => 0
                    [default_price] => 0
                    [package] => 1
                    [container] => 0
                    [deleted] => 
                    [order] => 42
                )

            [37] => Array
                (
                    [__className] => Article
                    [name] => Sypký písek 500g
                    [id] => 75
                    [short_name] => SP 500g
                    [unit] => ks
                    [vat] => 0.21
                    [direction] => 0
                    [default_price] => 16.52
                    [package] => 1
                    [container] => 0
                    [deleted] => 
                    [order] => 32
                )

            [38] => Array
                (
                    [__className] => Article
                    [name] => Slunečnicový olej - velkoobjemový
                    [id] => 77
                    [short_name] => SlunOlej
                    [unit] => kg
                    [vat] => 0.15
                    [direction] => 0
                    [default_price] => 0
                    [package] => 0
                    [container] => 0
                    [deleted] => 
                    [order] => 14
                )

            [39] => Array
                (
                    [__className] => Article
                    [name] => MENU BOX 1
                    [id] => 79
                    [short_name] => MENU BOX 1
                    [unit] => bal.
                    [vat] => 0.21
                    [direction] => 0
                    [default_price] => 415
                    [package] => 1
                    [container] => 0
                    [deleted] => 
                    [order] => 33
                )

            [40] => Array
                (
                    [__className] => Article
                    [name] => Prací gel 1,5 L
                    [id] => 81
                    [short_name] => PG 1,5 L
                    [unit] => ks
                    [vat] => 0.21
                    [direction] => 0
                    [default_price] => 0
                    [package] => 1
                    [container] => 0
                    [deleted] => 
                    [order] => 22
                )

            [41] => Array
                (
                    [__className] => Article
                    [name] => Aviváž 5 L
                    [id] => 83
                    [short_name] => AV 5 L
                    [unit] => lt
                    [vat] => 0.21
                    [direction] => 0
                    [default_price] => 0
                    [package] => 5
                    [container] => 0
                    [deleted] => 
                    [order] => 23
                )

            [42] => Array
                (
                    [__className] => Article
                    [name] => barel 30l
                    [id] => 85
                    [short_name] => barel 30l
                    [unit] => ks
                    [vat] => 0.21
                    [direction] => 0
                    [default_price] => 180
                    [package] => 1
                    [container] => 1
                    [deleted] => 
                    [order] => 40
                )

            [43] => Array
                (
                    [__className] => Article
                    [name] => IBC 1000 l
                    [id] => 87
                    [short_name] => IBC 1000 l
                    [unit] => ks
                    [vat] => 0.21
                    [direction] => 0
                    [default_price] => 1500
                    [package] => 1
                    [container] => 1
                    [deleted] => 
                    [order] => 43
                )

            [44] => Array
                (
                    [__className] => Article
                    [name] => Použitý olej v IBC
                    [id] => 89
                    [short_name] => PO v IBC
                    [unit] => lt
                    [vat] => 0.21
                    [direction] => 0
                    [default_price] => 0
                    [package] => 1000
                    [container] => 0
                    [deleted] => 
                    [order] => 3
                )

            [45] => Array
                (
                    [__className] => Article
                    [name] => Fritovací olej Professional 10 L
                    [id] => 91
                    [short_name] => FO Profi 10L
                    [unit] => lt
                    [vat] => 0.15
                    [direction] => 0
                    [default_price] => 33.91
                    [package] => 10
                    [container] => 0
                    [deleted] => 
                    [order] => 11
                )

            [46] => Array
                (
                    [__className] => Article
                    [name] => Fritovací olej Professional 10 L
                    [id] => 93
                    [short_name] => FO Profi 10L
                    [unit] => lt
                    [vat] => 0.15
                    [direction] => 0
                    [default_price] => 33.91
                    [package] => 10
                    [container] => 0
                    [deleted] => 1
                    [order] => 0
                )

            [47] => Array
                (
                    [__className] => Article
                    [name] => Použitý tuk 30 - KG
                    [id] => 95
                    [short_name] => PO30
                    [unit] => kg
                    [vat] => 0.21
                    [direction] => 1
                    [default_price] => 0
                    [package] => 27
                    [container] => 0
                    [deleted] => 
                    [order] => 51
                )

            [48] => Array
                (
                    [__className] => Article
                    [name] => Víčko pro misky
                    [id] => 117
                    [short_name] => Víčko
                    [unit] => bal
                    [vat] => 0.21
                    [direction] => 0
                    [default_price] => 48.76
                    [package] => 1
                    [container] => 0
                    [deleted] => 
                    [order] => 45
                )

            [49] => Array
                (
                    [__className] => Article
                    [name] => Termo-miska 450 ml
                    [id] => 120
                    [short_name] => Miska 450 ml
                    [unit] => bal.
                    [vat] => 0.21
                    [direction] => 0
                    [default_price] => 45.45
                    [package] => 1
                    [container] => 0
                    [deleted] => 
                    [order] => 46
                )

            [50] => Array
                (
                    [__className] => Article
                    [name] => 
                    [id] => 128
                    [short_name] => 
                    [unit] => lt
                    [vat] => 0
                    [direction] => 0
                    [default_price] => 0
                    [package] => 0
                    [container] => 0
                    [deleted] => 1
                    [order] => 0
                )

            [51] => Array
                (
                    [__className] => Article
                    [name] => Vývoz LAPOL
                    [id] => 131
                    [short_name] => Vývoz LAPOL
                    [unit] => ks
                    [vat] => 0.21
                    [direction] => 0
                    [default_price] => 1198
                    [package] => 1
                    [container] => 0
                    [deleted] => 
                    [order] => 47
                )

            [52] => Array
                (
                    [__className] => Article
                    [name] => CisternovýOlej
                    [id] => 152
                    [short_name] => CisOlej
                    [unit] => kg
                    [vat] => 0.15
                    [direction] => 0
                    [default_price] => 0
                    [package] => 0
                    [container] => 0
                    [deleted] => 
                    [order] => 48
                )

            [53] => Array
                (
                    [__className] => Article
                    [name] => AP5
                    [id] => 155
                    [short_name] => AP5
                    [unit] => lt
                    [vat] => 0.15
                    [direction] => 0
                    [default_price] => 25
                    [package] => 5
                    [container] => 0
                    [deleted] => 
                    [order] => 49
                )

            [54] => Array
                (
                    [__className] => Article
                    [name] => Palmolein 10l
                    [id] => 158
                    [short_name] => Palmolein 10
                    [unit] => lt
                    [vat] => 0.15
                    [direction] => 0
                    [default_price] => 24
                    [package] => 10
                    [container] => 0
                    [deleted] => 
                    [order] => 10
                )

            [55] => Array
                (
                    [__className] => Article
                    [name] => Goldpack 20L
                    [id] => 161
                    [short_name] => Goldpack 20L
                    [unit] => lt
                    [vat] => 0.15
                    [direction] => 0
                    [default_price] => 29.45
                    [package] => 20
                    [container] => 0
                    [deleted] => 
                    [order] => 50
                )

            [56] => Array
                (
                    [__className] => Article
                    [name] => Slunečnicový Olej 1l
                    [id] => 164
                    [short_name] => Slun. 1l
                    [unit] => 
                    [vat] => 0
                    [direction] => 0
                    [default_price] => 0
                    [package] => 0
                    [container] => 0
                    [deleted] => 
                    [order] => 
                )

            [57] => Array
                (
                    [__className] => Article
                    [name] => Slunečnicový Olej 1l
                    [id] => 167
                    [short_name] => Slun. 1l
                    [unit] => lt
                    [vat] => 0
                    [direction] => 0
                    [default_price] => 0
                    [package] => 1
                    [container] => 0
                    [deleted] => 
                    [order] => 52
                )

            [58] => Array
                (
                    [__className] => Article
                    [name] => RM Čistící pr. 12 kg
                    [id] => 170
                    [short_name] => RM - C
                    [unit] => szt.
                    [vat] => 0
                    [direction] => 0
                    [default_price] => 0
                    [package] => 0
                    [container] => 0
                    [deleted] => 
                    [order] => 53
                )

            [59] => Array
                (
                    [__className] => Article
                    [name] => RM Lesk 10 kg
                    [id] => 173
                    [short_name] => RM - R
                    [unit] => szt.
                    [vat] => 0
                    [direction] => 0
                    [default_price] => 0
                    [package] => 0
                    [container] => 0
                    [deleted] => 
                    [order] => 55
                )

            [60] => Array
                (
                    [__className] => Article
                    [name] => RM Čistící pr. 25 kg
                    [id] => 176
                    [short_name] => RM - C25
                    [unit] => szt.
                    [vat] => 0
                    [direction] => 0
                    [default_price] => 0
                    [package] => 0
                    [container] => 0
                    [deleted] => 
                    [order] => 54
                )

            [61] => Array
                (
                    [__className] => Article
                    [name] => RM Vodní kámen 5 kg
                    [id] => 179
                    [short_name] => RM - S
                    [unit] => szt.
                    [vat] => 0
                    [direction] => 0
                    [default_price] => 0
                    [package] => 0
                    [container] => 0
                    [deleted] => 
                    [order] => 56
                )

            [62] => Array
                (
                    [__className] => Article
                    [name] => RM Grill - 5 kg
                    [id] => 182
                    [short_name] => RM - G
                    [unit] => szt.
                    [vat] => 0
                    [direction] => 0
                    [default_price] => 0
                    [package] => 0
                    [container] => 0
                    [deleted] => 
                    [order] => 57
                )

            [63] => Array
                (
                    [__className] => Article
                    [name] => RM Grill - 5 kg
                    [id] => 185
                    [short_name] => RM - G
                    [unit] => szt.
                    [vat] => 0
                    [direction] => 0
                    [default_price] => 0
                    [package] => 0
                    [container] => 0
                    [deleted] => 1
                    [order] => 0
                )

            [64] => Array
                (
                    [__className] => Article
                    [name] => barel 20 lt
                    [id] => 188
                    [short_name] => 20 obal
                    [unit] => ks
                    [vat] => 0.21
                    [direction] => 0
                    [default_price] => 0
                    [package] => 0
                    [container] => 1
                    [deleted] => 
                    [order] => 58
                )

            [65] => Array
                (
                    [__className] => Article
                    [name] => v 20 použitý olej - KG
                    [id] => 191
                    [short_name] => šo20
                    [unit] => kg
                    [vat] => 0.21
                    [direction] => 1
                    [default_price] => 1
                    [package] => 18
                    [container] => 0
                    [deleted] => 
                    [order] => 59
                )

            [66] => Array
                (
                    [__className] => Article
                    [name] => Ostatní použitý olej a tuk
                    [id] => 194
                    [short_name] => PO ost
                    [unit] => kg
                    [vat] => 0.21
                    [direction] => 1
                    [default_price] => 0
                    [package] => 0
                    [container] => 0
                    [deleted] => 
                    [order] => 60
                )

            [67] => Array
                (
                    [__className] => Article
                    [name] => barel 120l
                    [id] => 197
                    [short_name] => barel 120l
                    [unit] => ks
                    [vat] => 0.21
                    [direction] => 0
                    [default_price] => 300
                    [package] => 1
                    [container] => 1
                    [deleted] => 
                    [order] => 61
                )

            [68] => Array
                (
                    [__className] => Article
                    [name] => Morawski 5 L
                    [id] => 200
                    [short_name] => Morawski 5 L
                    [unit] => lt
                    [vat] => 0.15
                    [direction] => 0
                    [default_price] => 25
                    [package] => 5
                    [container] => 0
                    [deleted] => 
                    [order] => 62
                )

        )

)
