Array
(
    [__className] => RestResponse
    [status] => 200
    [data] => Array
        (
            [0] => Array
                (
                    [__className] => Premise
                    [id] => 3
                    [name] => Bistro Pacifik 
                    [street] => Řeznická  235
                    [city] => Benešov
                    [zip] => 256 01
                    [phone] => 
                    [mobile] => 604 855 441
                    [note] => NS, PO/4,- barely dovezeny 6.3.2006, dodatek 10/10/07  
                    [customer_id] => 8760
                    [color] => 
                    [article_prices] => asdfasdfasdf
                    [currency] => CZK
                    [supplier_id] => 1
                    [contact_sales_name] => 
                    [contact_sales_phone] => 
                    [contact_sales_mobile] => 
                    [contact_sales_email] => 
                    [contact_supply_name] => 
                    [contact_supply_phone] => 
                    [contact_supply_mobile] => 
                    [contact_supply_email] => 
                    [opening_hours_comment] => 
                    [do_amount] => 
                    [do_comment] => 
                    [frequency] => 
                    [do_price] => 
                    [co_amount] => 
                    [co_frequency] => 
                    [co_kind_id] => 
                    [co_price] => 
                    [co_comment] => 
                    [fryer_size] => 
                    [competition_id] => 
                    [competition_comment] => 
                    [other_goods] => 
                    [contract_date] => 
                    [franchise_id] => 
                    [country] => 1
                    [city_code] => CZ0201529303
                    [post_code] => 256 01
                    [web_site] => 
                    [payment] => 0
                    [iscc] => 
                    [locationLatitude] => 49.783102100000000
                    [locationLongitude] => 14.690499300000000
                    [expenseCashVersion] => 
                    [expenseCashNumber] => 
                    [expenseInvoiceVersion] => 
                    [expenseInvoiceNumber] => 
                    [expenseCashDebtVersion] => 
                    [expenseCashDebtNumber] => 
                    [opening_hours_1] => 1
                    [opening_hours_2] => 1
                    [opening_hours_3] => 1
                    [opening_hours_4] => 1
                    [opening_hours_5] => 1
                    [opening_hours_6] => 1
                    [opening_hours_7] => 1
                )

            [1] => Array
                (
                    [__className] => Premise
                    [id] => 4
                    [name] => U škvorů
                    [street] => Václavská 64
                    [city] => Čerčany
                    [zip] => 257 22
                    [phone] => 
                    [mobile] => 317 776 325 z i
                    [note] => NS, barel 6.3.2006/ sml. 31.3.2011.Smlouva 5.4.2012 ; PO / 3,-, SPÍŠ SEZONKA, VOLAT V KVĚTNU
                    [customer_id] => 14653
                    [color] => 
                    [article_prices] => asdfasdfasdf
                    [currency] => CZK
                    [supplier_id] => 1
                    [contact_sales_name] => 
                    [contact_sales_phone] => 
                    [contact_sales_mobile] => 
                    [contact_sales_email] => 
                    [contact_supply_name] => 
                    [contact_supply_phone] => 
                    [contact_supply_mobile] => 
                    [contact_supply_email] => 
                    [opening_hours_comment] => 
                    [do_amount] => 
                    [do_comment] => 
                    [frequency] => 
                    [do_price] => 
                    [co_amount] => 
                    [co_frequency] => 
                    [co_kind_id] => 
                    [co_price] => 
                    [co_comment] => 
                    [fryer_size] => 
                    [competition_id] => 
                    [competition_comment] => 
                    [other_goods] => 
                    [contract_date] => 
                    [franchise_id] => 
                    [country] => 1
                    [city_code] => CZ0201529516
                    [post_code] => 257 22
                    [web_site] => 
                    [payment] => 0
                    [iscc] => 
                    [locationLatitude] => 49.848358100000000
                    [locationLongitude] => 14.703970000000027
                    [expenseCashVersion] => 
                    [expenseCashNumber] => 
                    [expenseInvoiceVersion] => 
                    [expenseInvoiceNumber] => 
                    [expenseCashDebtVersion] => 
                    [expenseCashDebtNumber] => 
                    [opening_hours_1] => 1
                    [opening_hours_2] => 1
                    [opening_hours_3] => 1
                    [opening_hours_4] => 1
                    [opening_hours_5] => 1
                    [opening_hours_6] => 1
                    [opening_hours_7] => 1
                )

            [2] => Array
                (
                    [__className] => Premise
                    [id] => 7
                    [name] => Bufet
                    [street] => Erbenova 134
                    [city] => Benešov
                    [zip] => 256 01
                    [phone] => 
                    [mobile] => 
                    [note] => barel dovezen 6.3.2006
                    [customer_id] => 4
                    [color] => 
                    [article_prices] => asdfasdfasdf
                    [currency] => CZK
                    [supplier_id] => 1
                    [contact_sales_name] => 
                    [contact_sales_phone] => 
                    [contact_sales_mobile] => 
                    [contact_sales_email] => 
                    [contact_supply_name] => 
                    [contact_supply_phone] => 
                    [contact_supply_mobile] => 
                    [contact_supply_email] => 
                    [opening_hours_comment] => 
                    [do_amount] => 
                    [do_comment] => 
                    [frequency] => 
                    [do_price] => 
                    [co_amount] => 
                    [co_frequency] => 
                    [co_kind_id] => 
                    [co_price] => 
                    [co_comment] => 
                    [fryer_size] => 
                    [competition_id] => 
                    [competition_comment] => 
                    [other_goods] => 
                    [contract_date] => 
                    [franchise_id] => 
                    [country] => 1
                    [city_code] => CZ0201529303
                    [post_code] => 256 01
                    [web_site] => 
                    [payment] => 0
                    [iscc] => 
                    [locationLatitude] => 49.790189600000000
                    [locationLongitude] => 14.680954000000000
                    [expenseCashVersion] => 
                    [expenseCashNumber] => 
                    [expenseInvoiceVersion] => 
                    [expenseInvoiceNumber] => 
                    [expenseCashDebtVersion] => 
                    [expenseCashDebtNumber] => 
                    [opening_hours_1] => 
                    [opening_hours_2] => 
                    [opening_hours_3] => 
                    [opening_hours_4] => 
                    [opening_hours_5] => 
                    [opening_hours_6] => 
                    [opening_hours_7] => 
                )

            [3] => Array
                (
                    [__className] => Premise
                    [id] => 9
                    [name] => Café - Bistro
                    [street] => Tyršova 175
                    [city] => Benešov
                    [zip] => 256 01
                    [phone] => 
                    [mobile] => 
                    [note] => barel dovezen 6.3.2006  
                    [customer_id] => 4784
                    [color] => 
                    [article_prices] => asdfasdfasdf
                    [currency] => CZK
                    [supplier_id] => 1
                    [contact_sales_name] => 
                    [contact_sales_phone] => 
                    [contact_sales_mobile] => 
                    [contact_sales_email] => 
                    [contact_supply_name] => 
                    [contact_supply_phone] => 
                    [contact_supply_mobile] => 
                    [contact_supply_email] => 
                    [opening_hours_comment] => 
                    [do_amount] => 
                    [do_comment] => 
                    [frequency] => 
                    [do_price] => 
                    [co_amount] => 
                    [co_frequency] => 
                    [co_kind_id] => 
                    [co_price] => 
                    [co_comment] => 
                    [fryer_size] => 
                    [competition_id] => 
                    [competition_comment] => 
                    [other_goods] => 
                    [contract_date] => 
                    [franchise_id] => 
                    [country] => 1
                    [city_code] => CZ0201529303
                    [post_code] => 256 01
                    [web_site] => 
                    [payment] => 0
                    [iscc] => 
                    [locationLatitude] => 49.781929111760300
                    [locationLongitude] => 14.687604904174800
                    [expenseCashVersion] => 
                    [expenseCashNumber] => 
                    [expenseInvoiceVersion] => 
                    [expenseInvoiceNumber] => 
                    [expenseCashDebtVersion] => 
                    [expenseCashDebtNumber] => 
                    [opening_hours_1] => 
                    [opening_hours_2] => 
                    [opening_hours_3] => 
                    [opening_hours_4] => 
                    [opening_hours_5] => 
                    [opening_hours_6] => 
                    [opening_hours_7] => 
                )

            [4] => Array
                (
                    [__className] => Premise
                    [id] => 12
                    [name] => Hospůdka U Soudku
                    [street] => Táborská 496
                    [city] => Benešov
                    [zip] => 256 01
                    [phone] => 
                    [mobile] => 
                    [note] => 9.4.2013 radim obchod = zájem, otranz; barel dovezen 6.3.2006, dodatek 8/10/07, jezdí NAPRO
                    [customer_id] => 11
                    [color] => 
                    [article_prices] => asdfasdfasdf
                    [currency] => CZK
                    [supplier_id] => 1
                    [contact_sales_name] => 
                    [contact_sales_phone] => 
                    [contact_sales_mobile] => 
                    [contact_sales_email] => 
                    [contact_supply_name] => 
                    [contact_supply_phone] => 
                    [contact_supply_mobile] => 
                    [contact_supply_email] => 
                    [opening_hours_comment] => 
                    [do_amount] => 
                    [do_comment] => 
                    [frequency] => 
                    [do_price] => 
                    [co_amount] => 
                    [co_frequency] => 
                    [co_kind_id] => 
                    [co_price] => 
                    [co_comment] => 
                    [fryer_size] => 
                    [competition_id] => 
                    [competition_comment] => 
                    [other_goods] => 
                    [contract_date] => 
                    [franchise_id] => 
                    [country] => 1
                    [city_code] => CZ0201529303
                    [post_code] => 256 01
                    [web_site] => 
                    [payment] => 0
                    [iscc] => 
                    [locationLatitude] => 49.778674800000000
                    [locationLongitude] => 14.688537500000000
                    [expenseCashVersion] => 
                    [expenseCashNumber] => 
                    [expenseInvoiceVersion] => 
                    [expenseInvoiceNumber] => 
                    [expenseCashDebtVersion] => 
                    [expenseCashDebtNumber] => 
                    [opening_hours_1] => 
                    [opening_hours_2] => 
                    [opening_hours_3] => 
                    [opening_hours_4] => 
                    [opening_hours_5] => 
                    [opening_hours_6] => 
                    [opening_hours_7] => 
                )

            [5] => Array
                (
                    [__className] => Premise
                    [id] => 18
                    [name] => Hotel Lauřím
                    [street] => Nespeky 42
                    [city] => Nespeky
                    [zip] => 257 22
                    [phone] => 
                    [mobile] => 
                    [note] => 
                    [customer_id] => 17
                    [color] => 
                    [article_prices] => asdfasdfasdf
                    [currency] => CZK
                    [supplier_id] => 1
                    [contact_sales_name] => 
                    [contact_sales_phone] => 
                    [contact_sales_mobile] => 
                    [contact_sales_email] => 
                    [contact_supply_name] => 
                    [contact_supply_phone] => 
                    [contact_supply_mobile] => 
                    [contact_supply_email] => 
                    [opening_hours_comment] => 
                    [do_amount] => 
                    [do_comment] => 
                    [frequency] => 
                    [do_price] => 
                    [co_amount] => 
                    [co_frequency] => 
                    [co_kind_id] => 
                    [co_price] => 
                    [co_comment] => 
                    [fryer_size] => 
                    [competition_id] => 
                    [competition_comment] => 
                    [other_goods] => 
                    [contract_date] => 
                    [franchise_id] => 
                    [country] => 1
                    [city_code] => CZ0201530263
                    [post_code] => 257 22
                    [web_site] => 
                    [payment] => 0
                    [iscc] => 
                    [locationLatitude] => 49.855163300000000
                    [locationLongitude] => 14.606510500000013
                    [expenseCashVersion] => 
                    [expenseCashNumber] => 
                    [expenseInvoiceVersion] => 
                    [expenseInvoiceNumber] => 
                    [expenseCashDebtVersion] => 
                    [expenseCashDebtNumber] => 
                    [opening_hours_1] => 
                    [opening_hours_2] => 
                    [opening_hours_3] => 
                    [opening_hours_4] => 
                    [opening_hours_5] => 
                    [opening_hours_6] => 
                    [opening_hours_7] => 
                )

            [6] => Array
                (
                    [__className] => Premise
                    [id] => 21
                    [name] => Jídelna Metaz - skončili
                    [street] => Fr.Janečka 147
                    [city] => Týnec nad Sázavou
                    [zip] => 257 41
                    [phone] => 
                    [mobile] => 
                    [note] => barel dovezen 6.3.2006, barel odvezen 2.4.2009
                    [customer_id] => 20
                    [color] => 
                    [article_prices] => asdfasdfasdf
                    [currency] => CZK
                    [supplier_id] => 1
                    [contact_sales_name] => 
                    [contact_sales_phone] => 
                    [contact_sales_mobile] => 
                    [contact_sales_email] => 
                    [contact_supply_name] => 
                    [contact_supply_phone] => 
                    [contact_supply_mobile] => 
                    [contact_supply_email] => 
                    [opening_hours_comment] => 
                    [do_amount] => 
                    [do_comment] => 
                    [frequency] => 
                    [do_price] => 
                    [co_amount] => 
                    [co_frequency] => 
                    [co_kind_id] => 
                    [co_price] => 
                    [co_comment] => 
                    [fryer_size] => 
                    [competition_id] => 
                    [competition_comment] => 
                    [other_goods] => 
                    [contract_date] => 
                    [franchise_id] => 
                    [country] => 1
                    [city_code] => CZ0201530841
                    [post_code] => 257 41
                    [web_site] => 
                    [payment] => 0
                    [iscc] => 
                    [locationLatitude] => 49.832719500000000
                    [locationLongitude] => 14.587898500000000
                    [expenseCashVersion] => 
                    [expenseCashNumber] => 
                    [expenseInvoiceVersion] => 
                    [expenseInvoiceNumber] => 
                    [expenseCashDebtVersion] => 
                    [expenseCashDebtNumber] => 
                    [opening_hours_1] => 
                    [opening_hours_2] => 
                    [opening_hours_3] => 
                    [opening_hours_4] => 
                    [opening_hours_5] => 
                    [opening_hours_6] => 
                    [opening_hours_7] => 
                )

            [7] => Array
                (
                    [__className] => Premise
                    [id] => 29
                    [name] => Restaurant HA LONG
                    [street] => Tyršova 189
                    [city] => Benešov
                    [zip] => 256 01
                    [phone] => 
                    [mobile] => 
                    [note] => barel dovezen 6.3.2006, Přerušená činnost
                    [customer_id] => 28
                    [color] => 
                    [article_prices] => asdfasdfasdf
                    [currency] => CZK
                    [supplier_id] => 1
                    [contact_sales_name] => 
                    [contact_sales_phone] => 
                    [contact_sales_mobile] => 
                    [contact_sales_email] => 
                    [contact_supply_name] => 
                    [contact_supply_phone] => 
                    [contact_supply_mobile] => 
                    [contact_supply_email] => 
                    [opening_hours_comment] => 
                    [do_amount] => 
                    [do_comment] => 
                    [frequency] => 
                    [do_price] => 
                    [co_amount] => 
                    [co_frequency] => 
                    [co_kind_id] => 
                    [co_price] => 
                    [co_comment] => 
                    [fryer_size] => 
                    [competition_id] => 
                    [competition_comment] => 
                    [other_goods] => 
                    [contract_date] => 
                    [franchise_id] => 
                    [country] => 1
                    [city_code] => CZ0201529303
                    [post_code] => 256 01
                    [web_site] => 
                    [payment] => 0
                    [iscc] => 
                    [locationLatitude] => 49.781555600000000
                    [locationLongitude] => 14.685218400000000
                    [expenseCashVersion] => 
                    [expenseCashNumber] => 
                    [expenseInvoiceVersion] => 
                    [expenseInvoiceNumber] => 
                    [expenseCashDebtVersion] => 
                    [expenseCashDebtNumber] => 
                    [opening_hours_1] => 
                    [opening_hours_2] => 
                    [opening_hours_3] => 
                    [opening_hours_4] => 
                    [opening_hours_5] => 
                    [opening_hours_6] => 
                    [opening_hours_7] => 
                )

            [8] => Array
                (
                    [__className] => Premise
                    [id] => 30
                    [name] => Restaurace Hvězda
                    [street] => OD Hvězda
                    [city] => Benešov
                    [zip] => 256 01
                    [phone] => 
                    [mobile] => 
                    [note] => barel dovezen 6.3.2006
                    [customer_id] => 29
                    [color] => 
                    [article_prices] => asdfasdfasdf
                    [currency] => CZK
                    [supplier_id] => 1
                    [contact_sales_name] => 
                    [contact_sales_phone] => 
                    [contact_sales_mobile] => 
                    [contact_sales_email] => 
                    [contact_supply_name] => 
                    [contact_supply_phone] => 
                    [contact_supply_mobile] => 
                    [contact_supply_email] => 
                    [opening_hours_comment] => 
                    [do_amount] => 
                    [do_comment] => 
                    [frequency] => 
                    [do_price] => 
                    [co_amount] => 
                    [co_frequency] => 
                    [co_kind_id] => 
                    [co_price] => 
                    [co_comment] => 
                    [fryer_size] => 
                    [competition_id] => 
                    [competition_comment] => 
                    [other_goods] => 
                    [contract_date] => 
                    [franchise_id] => 
                    [country] => 1
                    [city_code] => CZ0201529303
                    [post_code] => 256 01
                    [web_site] => 
                    [payment] => 0
                    [iscc] => 
                    [locationLatitude] => 49.783782100000000
                    [locationLongitude] => 14.687369799999942
                    [expenseCashVersion] => 
                    [expenseCashNumber] => 
                    [expenseInvoiceVersion] => 
                    [expenseInvoiceNumber] => 
                    [expenseCashDebtVersion] => 
                    [expenseCashDebtNumber] => 
                    [opening_hours_1] => 
                    [opening_hours_2] => 
                    [opening_hours_3] => 
                    [opening_hours_4] => 
                    [opening_hours_5] => 
                    [opening_hours_6] => 
                    [opening_hours_7] => 
                )

            [9] => Array
                (
                    [__className] => Premise
                    [id] => 31
                    [name] => Krušovická restaurace
                    [street] => Bukovany192
                    [city] => Týnec nad Sázavou
                    [zip] => 257 41
                    [phone] => 
                    [mobile] => 
                    [note] => barel dovezen 4.6.2006  NEBEROU TEL
                    [customer_id] => 30
                    [color] => 
                    [article_prices] => asdfasdfasdf
                    [currency] => CZK
                    [supplier_id] => 1
                    [contact_sales_name] => 
                    [contact_sales_phone] => 
                    [contact_sales_mobile] => 
                    [contact_sales_email] => 
                    [contact_supply_name] => 
                    [contact_supply_phone] => 
                    [contact_supply_mobile] => 
                    [contact_supply_email] => 
                    [opening_hours_comment] => 
                    [do_amount] => 
                    [do_comment] => 
                    [frequency] => 
                    [do_price] => 
                    [co_amount] => 
                    [co_frequency] => 
                    [co_kind_id] => 
                    [co_price] => 
                    [co_comment] => 
                    [fryer_size] => 
                    [competition_id] => 
                    [competition_comment] => 
                    [other_goods] => 
                    [contract_date] => 
                    [franchise_id] => 
                    [country] => 1
                    [city_code] => CZ0201530841
                    [post_code] => 257 41
                    [web_site] => 
                    [payment] => 0
                    [iscc] => 
                    [locationLatitude] => 49.824744200000000
                    [locationLongitude] => 14.623097100000000
                    [expenseCashVersion] => 
                    [expenseCashNumber] => 
                    [expenseInvoiceVersion] => 
                    [expenseInvoiceNumber] => 
                    [expenseCashDebtVersion] => 
                    [expenseCashDebtNumber] => 
                    [opening_hours_1] => 
                    [opening_hours_2] => 
                    [opening_hours_3] => 
                    [opening_hours_4] => 
                    [opening_hours_5] => 
                    [opening_hours_6] => 
                    [opening_hours_7] => 
                )

            [10] => Array
                (
                    [__className] => Premise
                    [id] => 32
                    [name] => Restaurace Kulturní dům
                    [street] => Klusáčková 2
                    [city] => Týnec nad Sázavou
                    [zip] => 257 41
                    [phone] => 
                    [mobile] => 
                    [note] => barel dovezen 7.3.2006  
                    [customer_id] => 31
                    [color] => 
                    [article_prices] => asdfasdfasdf
                    [currency] => CZK
                    [supplier_id] => 1
                    [contact_sales_name] => 
                    [contact_sales_phone] => 
                    [contact_sales_mobile] => 
                    [contact_sales_email] => 
                    [contact_supply_name] => 
                    [contact_supply_phone] => 
                    [contact_supply_mobile] => 
                    [contact_supply_email] => 
                    [opening_hours_comment] => 
                    [do_amount] => 
                    [do_comment] => 
                    [frequency] => 
                    [do_price] => 
                    [co_amount] => 
                    [co_frequency] => 
                    [co_kind_id] => 
                    [co_price] => 
                    [co_comment] => 
                    [fryer_size] => 
                    [competition_id] => 
                    [competition_comment] => 
                    [other_goods] => 
                    [contract_date] => 
                    [franchise_id] => 
                    [country] => 1
                    [city_code] => CZ0201530841
                    [post_code] => 257 41
                    [web_site] => 
                    [payment] => 0
                    [iscc] => 
                    [locationLatitude] => 49.829834600000000
                    [locationLongitude] => 14.590740600000000
                    [expenseCashVersion] => 
                    [expenseCashNumber] => 
                    [expenseInvoiceVersion] => 
                    [expenseInvoiceNumber] => 
                    [expenseCashDebtVersion] => 
                    [expenseCashDebtNumber] => 
                    [opening_hours_1] => 
                    [opening_hours_2] => 
                    [opening_hours_3] => 
                    [opening_hours_4] => 
                    [opening_hours_5] => 
                    [opening_hours_6] => 
                    [opening_hours_7] => 
                )

            [11] => Array
                (
                    [__className] => Premise
                    [id] => 46
                    [name] => Stará hospoda
                    [street] => Benešovská 1
                    [city] => Nespeky
                    [zip] => 257 22
                    [phone] => 
                    [mobile] => 731 242 403, 60
                    [note] => PO/6,-, volali, že jsou nespokojeni s Otranzem, chtějí přejít k nám, barel dovezen 19.4.2006
                    [customer_id] => 44
                    [color] => 
                    [article_prices] => asdfasdfasdf
                    [currency] => CZK
                    [supplier_id] => 1
                    [contact_sales_name] => 
                    [contact_sales_phone] => 
                    [contact_sales_mobile] => 
                    [contact_sales_email] => 
                    [contact_supply_name] => 
                    [contact_supply_phone] => 
                    [contact_supply_mobile] => 
                    [contact_supply_email] => 
                    [opening_hours_comment] => 
                    [do_amount] => 
                    [do_comment] => 
                    [frequency] => 
                    [do_price] => 
                    [co_amount] => 
                    [co_frequency] => 
                    [co_kind_id] => 
                    [co_price] => 
                    [co_comment] => 
                    [fryer_size] => 
                    [competition_id] => 
                    [competition_comment] => 
                    [other_goods] => 
                    [contract_date] => 
                    [franchise_id] => 
                    [country] => 1
                    [city_code] => CZ0201530263
                    [post_code] => 257 22
                    [web_site] => 
                    [payment] => 0
                    [iscc] => 
                    [locationLatitude] => 49.859470100000000
                    [locationLongitude] => 14.658584900000050
                    [expenseCashVersion] => 
                    [expenseCashNumber] => 
                    [expenseInvoiceVersion] => 
                    [expenseInvoiceNumber] => 
                    [expenseCashDebtVersion] => 
                    [expenseCashDebtNumber] => 
                    [opening_hours_1] => 1
                    [opening_hours_2] => 1
                    [opening_hours_3] => 1
                    [opening_hours_4] => 1
                    [opening_hours_5] => 1
                    [opening_hours_6] => 1
                    [opening_hours_7] => 1
                )

            [12] => Array
                (
                    [__className] => Premise
                    [id] => 47
                    [name] => Stará myslivna Konopiště
                    [street] => Konopiště 2
                    [city] => Benešov
                    [zip] => 25601
                    [phone] => 
                    [mobile] => 
                    [note] => barel dovezen 19.4.2006, dodatek 3/10/07 
                    [customer_id] => 12149
                    [color] => 
                    [article_prices] => asdfasdfasdf
                    [currency] => CZK
                    [supplier_id] => 1
                    [contact_sales_name] => 
                    [contact_sales_phone] => 
                    [contact_sales_mobile] => 
                    [contact_sales_email] => 
                    [contact_supply_name] => 
                    [contact_supply_phone] => 
                    [contact_supply_mobile] => 
                    [contact_supply_email] => 
                    [opening_hours_comment] => 
                    [do_amount] => 
                    [do_comment] => 
                    [frequency] => 
                    [do_price] => 
                    [co_amount] => 
                    [co_frequency] => 
                    [co_kind_id] => 
                    [co_price] => 
                    [co_comment] => 
                    [fryer_size] => 
                    [competition_id] => 
                    [competition_comment] => 
                    [other_goods] => 
                    [contract_date] => 
                    [franchise_id] => 
                    [country] => 1
                    [city_code] => CZ0201529303
                    [post_code] => 25601
                    [web_site] => 
                    [payment] => 2
                    [iscc] => 
                    [locationLatitude] => 49.781398600000000
                    [locationLongitude] => 14.656965800000000
                    [expenseCashVersion] => 
                    [expenseCashNumber] => 
                    [expenseInvoiceVersion] => 
                    [expenseInvoiceNumber] => 
                    [expenseCashDebtVersion] => 
                    [expenseCashDebtNumber] => 
                    [opening_hours_1] => 
                    [opening_hours_2] => 
                    [opening_hours_3] => 
                    [opening_hours_4] => 
                    [opening_hours_5] => 
                    [opening_hours_6] => 
                    [opening_hours_7] => 
                )

            [13] => Array
                (
                    [__className] => Premise
                    [id] => 851
                    [name] => Steelhouse
                    [street] => Nám.svobody 527
                    [city] => Třinec
                    [zip] => 73961
                    [phone] => 
                    [mobile] => 556 200 181, 60
                    [note] => MĚSÍČNĚ  PS 2.5.   PO / 5Kč   už má jen Hotel Steel, volat paní Helmové na mobil nebo na pevnou 181 na konci
                    [customer_id] => 805
                    [color] => 
                    [article_prices] => asdfasdfasdf
                    [currency] => CZK
                    [supplier_id] => 1
                    [contact_sales_name] => 
                    [contact_sales_phone] => 
                    [contact_sales_mobile] => 
                    [contact_sales_email] => 
                    [contact_supply_name] => 
                    [contact_supply_phone] => 
                    [contact_supply_mobile] => 
                    [contact_supply_email] => 
                    [opening_hours_comment] => 
                    [do_amount] => 
                    [do_comment] => 
                    [frequency] => 
                    [do_price] => 
                    [co_amount] => 
                    [co_frequency] => 
                    [co_kind_id] => 
                    [co_price] => 
                    [co_comment] => 
                    [fryer_size] => 
                    [competition_id] => 
                    [competition_comment] => 
                    [other_goods] => 
                    [contract_date] => 
                    [franchise_id] => 
                    [country] => 1
                    [city_code] => CZ0802598810
                    [post_code] => 73961
                    [web_site] => 
                    [payment] => 0
                    [iscc] => 
                    [locationLatitude] => 49.669386600000000
                    [locationLongitude] => 18.674929000000020
                    [expenseCashVersion] => 
                    [expenseCashNumber] => 
                    [expenseInvoiceVersion] => 
                    [expenseInvoiceNumber] => 
                    [expenseCashDebtVersion] => 
                    [expenseCashDebtNumber] => 
                    [opening_hours_1] => 1
                    [opening_hours_2] => 1
                    [opening_hours_3] => 1
                    [opening_hours_4] => 1
                    [opening_hours_5] => 1
                    [opening_hours_6] => 1
                    [opening_hours_7] => 1
                )

            [14] => Array
                (
                    [__className] => Premise
                    [id] => 867
                    [name] => Pizzerie Alfredo
                    [street] => Dukelská ( Prior )
                    [city] => Třinec
                    [zip] => 
                    [phone] => 
                    [mobile] => 777 919 202 pro
                    [note] => 1x 14  DNŮ  ověřovat ČO  PO 6 /  Kč  + Palma  34.50 / Kč //  barel dovezen 8.12.2005, stará smlouva 25.5.2012
                    [customer_id] => 819
                    [color] => 
                    [article_prices] => asdfasdfasdf
                    [currency] => CZK
                    [supplier_id] => 1
                    [contact_sales_name] => 
                    [contact_sales_phone] => 
                    [contact_sales_mobile] => 
                    [contact_sales_email] => 
                    [contact_supply_name] => 
                    [contact_supply_phone] => 
                    [contact_supply_mobile] => 
                    [contact_supply_email] => 
                    [opening_hours_comment] => 
                    [do_amount] => 
                    [do_comment] => 
                    [frequency] => 
                    [do_price] => 
                    [co_amount] => 
                    [co_frequency] => 
                    [co_kind_id] => 
                    [co_price] => 
                    [co_comment] => 
                    [fryer_size] => 
                    [competition_id] => 
                    [competition_comment] => 
                    [other_goods] => 
                    [contract_date] => 
                    [franchise_id] => 
                    [country] => 1
                    [city_code] => CZ0802598810
                    [post_code] => 
                    [web_site] => 
                    [payment] => 0
                    [iscc] => 
                    [locationLatitude] => 49.666708804477700
                    [locationLongitude] => 18.677519460843800
                    [expenseCashVersion] => 
                    [expenseCashNumber] => 
                    [expenseInvoiceVersion] => 
                    [expenseInvoiceNumber] => 
                    [expenseCashDebtVersion] => 
                    [expenseCashDebtNumber] => 
                    [opening_hours_1] => 1
                    [opening_hours_2] => 1
                    [opening_hours_3] => 1
                    [opening_hours_4] => 1
                    [opening_hours_5] => 1
                    [opening_hours_6] => 1
                    [opening_hours_7] => 1
                )

            [15] => Array
                (
                    [__className] => Premise
                    [id] => 872
                    [name] => Restaurace Burian
                    [street] => Horní 43
                    [city] => Třinec
                    [zip] => 739 61
                    [phone] => 
                    [mobile] => 
                    [note] => smlouva ze dne 25.1.06 dodatek ze dne 27.9.07 a obnovena smlouva ze dne 12.12.2007
                    [customer_id] => 824
                    [color] => 
                    [article_prices] => asdfasdfasdf
                    [currency] => CZK
                    [supplier_id] => 1
                    [contact_sales_name] => 
                    [contact_sales_phone] => 
                    [contact_sales_mobile] => 
                    [contact_sales_email] => 
                    [contact_supply_name] => 
                    [contact_supply_phone] => 
                    [contact_supply_mobile] => 
                    [contact_supply_email] => 
                    [opening_hours_comment] => 
                    [do_amount] => 
                    [do_comment] => 
                    [frequency] => 
                    [do_price] => 
                    [co_amount] => 
                    [co_frequency] => 
                    [co_kind_id] => 
                    [co_price] => 
                    [co_comment] => 
                    [fryer_size] => 
                    [competition_id] => 
                    [competition_comment] => 
                    [other_goods] => 
                    [contract_date] => 
                    [franchise_id] => 
                    [country] => 1
                    [city_code] => CZ0802598810
                    [post_code] => 739 61
                    [web_site] => 
                    [payment] => 0
                    [iscc] => 
                    [locationLatitude] => 49.660725500000000
                    [locationLongitude] => 18.671719400000030
                    [expenseCashVersion] => 
                    [expenseCashNumber] => 
                    [expenseInvoiceVersion] => 
                    [expenseInvoiceNumber] => 
                    [expenseCashDebtVersion] => 
                    [expenseCashDebtNumber] => 
                    [opening_hours_1] => 1
                    [opening_hours_2] => 1
                    [opening_hours_3] => 1
                    [opening_hours_4] => 1
                    [opening_hours_5] => 1
                    [opening_hours_6] => 1
                    [opening_hours_7] => 1
                )

            [16] => Array
                (
                    [__className] => Premise
                    [id] => 4084
                    [name] => Česká televize - Praha
                    [street] => Na Hřebenech II
                    [city] => Praha
                    [zip] => 140 00
                    [phone] => 
                    [mobile] => 261 132 108 skl
                    [note] => +4b 25.4.2008, jsou jen do 14.hod!!, jezdit jen s trasou 19
                    [customer_id] => 2647
                    [color] => 
                    [article_prices] => asdfasdfasdf
                    [currency] => CZK
                    [supplier_id] => 1
                    [contact_sales_name] => 
                    [contact_sales_phone] => 
                    [contact_sales_mobile] => 
                    [contact_sales_email] => 
                    [contact_supply_name] => 
                    [contact_supply_phone] => 
                    [contact_supply_mobile] => 
                    [contact_supply_email] => 
                    [opening_hours_comment] => 
                    [do_amount] => 
                    [do_comment] => 
                    [frequency] => 
                    [do_price] => 
                    [co_amount] => 
                    [co_frequency] => 
                    [co_kind_id] => 
                    [co_price] => 
                    [co_comment] => 
                    [fryer_size] => 
                    [competition_id] => 
                    [competition_comment] => 
                    [other_goods] => 
                    [contract_date] => 
                    [franchise_id] => 
                    [country] => 1
                    [city_code] => CZ0100554782
                    [post_code] => 140 00
                    [web_site] => 
                    [payment] => 0
                    [iscc] => 
                    [locationLatitude] => 50.051396500000000
                    [locationLongitude] => 14.427373200000034
                    [expenseCashVersion] => 
                    [expenseCashNumber] => 
                    [expenseInvoiceVersion] => 
                    [expenseInvoiceNumber] => 
                    [expenseCashDebtVersion] => 
                    [expenseCashDebtNumber] => 
                    [opening_hours_1] => 1
                    [opening_hours_2] => 1
                    [opening_hours_3] => 1
                    [opening_hours_4] => 1
                    [opening_hours_5] => 1
                    [opening_hours_6] => 1
                    [opening_hours_7] => 1
                )

            [17] => Array
                (
                    [__className] => Premise
                    [id] => 4104
                    [name] => T - MOBILE Czech republic a.s.
                    [street] => Tomíčkova 1
                    [city] => Praha
                    [zip] => 148 00
                    [phone] => 
                    [mobile] => 731 438 387
                    [note] => 24.4.2006 dodan barel, +1b 7.4.2008   
                    [customer_id] => 2647
                    [color] => 
                    [article_prices] => asdfasdfasdf
                    [currency] => CZK
                    [supplier_id] => 1
                    [contact_sales_name] => 
                    [contact_sales_phone] => 
                    [contact_sales_mobile] => 
                    [contact_sales_email] => 
                    [contact_supply_name] => 
                    [contact_supply_phone] => 
                    [contact_supply_mobile] => 
                    [contact_supply_email] => 
                    [opening_hours_comment] => 
                    [do_amount] => 
                    [do_comment] => 
                    [frequency] => 
                    [do_price] => 
                    [co_amount] => 
                    [co_frequency] => 
                    [co_kind_id] => 
                    [co_price] => 
                    [co_comment] => 
                    [fryer_size] => 
                    [competition_id] => 
                    [competition_comment] => 
                    [other_goods] => 
                    [contract_date] => 
                    [franchise_id] => 
                    [country] => 1
                    [city_code] => CZ0100554782
                    [post_code] => 148 00
                    [web_site] => 
                    [payment] => 0
                    [iscc] => 
                    [locationLatitude] => 50.039113500000000
                    [locationLongitude] => 14.475608600000000
                    [expenseCashVersion] => 
                    [expenseCashNumber] => 
                    [expenseInvoiceVersion] => 
                    [expenseInvoiceNumber] => 
                    [expenseCashDebtVersion] => 
                    [expenseCashDebtNumber] => 
                    [opening_hours_1] => 
                    [opening_hours_2] => 
                    [opening_hours_3] => 
                    [opening_hours_4] => 
                    [opening_hours_5] => 
                    [opening_hours_6] => 
                    [opening_hours_7] => 
                )

            [18] => Array
                (
                    [__className] => Premise
                    [id] => 4108
                    [name] => Čokol. Nestlé Česko s.r.o. - ORION Modřany
                    [street] => Mezi vodami 27
                    [city] => Praha
                    [zip] => 143 00
                    [phone] => 
                    [mobile] => 
                    [note] =>  + 1 barel 1.8.2006
                    [customer_id] => 2647
                    [color] => 
                    [article_prices] => asdfasdfasdf
                    [currency] => CZK
                    [supplier_id] => 1
                    [contact_sales_name] => 
                    [contact_sales_phone] => 
                    [contact_sales_mobile] => 
                    [contact_sales_email] => 
                    [contact_supply_name] => 
                    [contact_supply_phone] => 
                    [contact_supply_mobile] => 
                    [contact_supply_email] => 
                    [opening_hours_comment] => 
                    [do_amount] => 
                    [do_comment] => 
                    [frequency] => 
                    [do_price] => 
                    [co_amount] => 
                    [co_frequency] => 
                    [co_kind_id] => 
                    [co_price] => 
                    [co_comment] => 
                    [fryer_size] => 
                    [competition_id] => 
                    [competition_comment] => 
                    [other_goods] => 
                    [contract_date] => 
                    [franchise_id] => 
                    [country] => 1
                    [city_code] => CZ0100554782
                    [post_code] => 143 00
                    [web_site] => 
                    [payment] => 0
                    [iscc] => 
                    [locationLatitude] => 50.018377900000000
                    [locationLongitude] => 14.402167300000000
                    [expenseCashVersion] => 
                    [expenseCashNumber] => 
                    [expenseInvoiceVersion] => 
                    [expenseInvoiceNumber] => 
                    [expenseCashDebtVersion] => 
                    [expenseCashDebtNumber] => 
                    [opening_hours_1] => 
                    [opening_hours_2] => 
                    [opening_hours_3] => 
                    [opening_hours_4] => 
                    [opening_hours_5] => 
                    [opening_hours_6] => 
                    [opening_hours_7] => 
                )

            [19] => Array
                (
                    [__className] => Premise
                    [id] => 4632
                    [name] => Penzion Restaurant Starý dům
                    [street] => Radotínská 40
                    [city] => Černošice
                    [zip] => 252 28
                    [phone] => 
                    [mobile] => 774 718 889 res
                    [note] =>  16.7.2008
                    [customer_id] => 3966
                    [color] => 
                    [article_prices] => asdfasdfasdf
                    [currency] => CZK
                    [supplier_id] => 1
                    [contact_sales_name] => 
                    [contact_sales_phone] => 
                    [contact_sales_mobile] => 
                    [contact_sales_email] => 
                    [contact_supply_name] => 
                    [contact_supply_phone] => 
                    [contact_supply_mobile] => 
                    [contact_supply_email] => 
                    [opening_hours_comment] => 
                    [do_amount] => 
                    [do_comment] => 
                    [frequency] => 
                    [do_price] => 
                    [co_amount] => 
                    [co_frequency] => 
                    [co_kind_id] => 
                    [co_price] => 
                    [co_comment] => 
                    [fryer_size] => 
                    [competition_id] => 
                    [competition_comment] => 
                    [other_goods] => 
                    [contract_date] => 
                    [franchise_id] => 
                    [country] => 1
                    [city_code] => CZ020A539139
                    [post_code] => 252 28
                    [web_site] => 
                    [payment] => 0
                    [iscc] => 
                    [locationLatitude] => 49.967900300000000
                    [locationLongitude] => 14.332599300000000
                    [expenseCashVersion] => 
                    [expenseCashNumber] => 
                    [expenseInvoiceVersion] => 
                    [expenseInvoiceNumber] => 
                    [expenseCashDebtVersion] => 
                    [expenseCashDebtNumber] => 
                    [opening_hours_1] => 
                    [opening_hours_2] => 
                    [opening_hours_3] => 
                    [opening_hours_4] => 
                    [opening_hours_5] => 
                    [opening_hours_6] => 
                    [opening_hours_7] => 
                )

            [20] => Array
                (
                    [__className] => Premise
                    [id] => 4641
                    [name] => Restaurace U Sfingy
                    [street] => Máchova 1131
                    [city] => Třinec
                    [zip] => 739 61
                    [phone] => 
                    [mobile] => 
                    [note] => TÝDENNÍ  Automatická nakládka  DK / 28 Kč  PO  / 5 Kč  /stará smlouva ze dne 23.1.2008, 24.9.10 dodán barel// nová sml. 16.9.2011, 
                    [customer_id] => 7801
                    [color] => 
                    [article_prices] => asdfasdfasdf
                    [currency] => CZK
                    [supplier_id] => 1
                    [contact_sales_name] => 
                    [contact_sales_phone] => 
                    [contact_sales_mobile] => 
                    [contact_sales_email] => 
                    [contact_supply_name] => 
                    [contact_supply_phone] => 
                    [contact_supply_mobile] => 
                    [contact_supply_email] => 
                    [opening_hours_comment] => 
                    [do_amount] => 
                    [do_comment] => 
                    [frequency] => 
                    [do_price] => 
                    [co_amount] => 
                    [co_frequency] => 
                    [co_kind_id] => 
                    [co_price] => 
                    [co_comment] => 
                    [fryer_size] => 
                    [competition_id] => 
                    [competition_comment] => 
                    [other_goods] => 
                    [contract_date] => 
                    [franchise_id] => 
                    [country] => 1
                    [city_code] => CZ0802598810
                    [post_code] => 739 61
                    [web_site] => 
                    [payment] => 0
                    [iscc] => 
                    [locationLatitude] => 49.670179600000000
                    [locationLongitude] => 18.670643100000000
                    [expenseCashVersion] => 
                    [expenseCashNumber] => 
                    [expenseInvoiceVersion] => 
                    [expenseInvoiceNumber] => 
                    [expenseCashDebtVersion] => 
                    [expenseCashDebtNumber] => 
                    [opening_hours_1] => 
                    [opening_hours_2] => 
                    [opening_hours_3] => 
                    [opening_hours_4] => 
                    [opening_hours_5] => 
                    [opening_hours_6] => 
                    [opening_hours_7] => 
                )

            [21] => Array
                (
                    [__className] => Premise
                    [id] => 4673
                    [name] => Burger bar
                    [street] => Lidická 1269
                    [city] => Třinec
                    [zip] => 739 61
                    [phone] => 
                    [mobile] => 739 640 492 pro
                    [note] => MĚSÍČNĚ  PS 4.4.  Po / 6 kč   / stará smlouva ze dne 29.2.2008, na menuboxy má dodavatele, kterého nechce měnit
                    [customer_id] => 4003
                    [color] => 
                    [article_prices] => asdfasdfasdf
                    [currency] => CZK
                    [supplier_id] => 1
                    [contact_sales_name] => 
                    [contact_sales_phone] => 
                    [contact_sales_mobile] => 
                    [contact_sales_email] => 
                    [contact_supply_name] => 
                    [contact_supply_phone] => 
                    [contact_supply_mobile] => 
                    [contact_supply_email] => 
                    [opening_hours_comment] => 
                    [do_amount] => 
                    [do_comment] => 
                    [frequency] => 
                    [do_price] => 
                    [co_amount] => 
                    [co_frequency] => 
                    [co_kind_id] => 
                    [co_price] => 
                    [co_comment] => 
                    [fryer_size] => 
                    [competition_id] => 
                    [competition_comment] => 
                    [other_goods] => 
                    [contract_date] => 
                    [franchise_id] => 
                    [country] => 1
                    [city_code] => CZ0802598810
                    [post_code] => 739 61
                    [web_site] => 
                    [payment] => 0
                    [iscc] => 
                    [locationLatitude] => 49.669625914447000
                    [locationLongitude] => 18.675988702842400
                    [expenseCashVersion] => 
                    [expenseCashNumber] => 
                    [expenseInvoiceVersion] => 
                    [expenseInvoiceNumber] => 
                    [expenseCashDebtVersion] => 
                    [expenseCashDebtNumber] => 
                    [opening_hours_1] => 
                    [opening_hours_2] => 
                    [opening_hours_3] => 
                    [opening_hours_4] => 
                    [opening_hours_5] => 
                    [opening_hours_6] => 
                    [opening_hours_7] => 
                )

            [22] => Array
                (
                    [__className] => Premise
                    [id] => 4750
                    [name] => Restaurace U Stejskalů 
                    [street] => Nová Pražská 416
                    [city] => Benešov
                    [zip] => 256 01
                    [phone] => 
                    [mobile] => 
                    [note] => NS,Smlouva ze dne 11.4.2008
                    [customer_id] => 4069
                    [color] => 
                    [article_prices] => asdfasdfasdf
                    [currency] => CZK
                    [supplier_id] => 1
                    [contact_sales_name] => 
                    [contact_sales_phone] => 
                    [contact_sales_mobile] => 
                    [contact_sales_email] => 
                    [contact_supply_name] => 
                    [contact_supply_phone] => 
                    [contact_supply_mobile] => 
                    [contact_supply_email] => 
                    [opening_hours_comment] => 
                    [do_amount] => 
                    [do_comment] => 
                    [frequency] => 
                    [do_price] => 
                    [co_amount] => 
                    [co_frequency] => 
                    [co_kind_id] => 
                    [co_price] => 
                    [co_comment] => 
                    [fryer_size] => 
                    [competition_id] => 
                    [competition_comment] => 
                    [other_goods] => 
                    [contract_date] => 
                    [franchise_id] => 
                    [country] => 1
                    [city_code] => CZ0201529303
                    [post_code] => 256 01
                    [web_site] => 
                    [payment] => 0
                    [iscc] => 
                    [locationLatitude] => 49.786580300000000
                    [locationLongitude] => 14.688078500000000
                    [expenseCashVersion] => 
                    [expenseCashNumber] => 
                    [expenseInvoiceVersion] => 
                    [expenseInvoiceNumber] => 
                    [expenseCashDebtVersion] => 
                    [expenseCashDebtNumber] => 
                    [opening_hours_1] => 
                    [opening_hours_2] => 
                    [opening_hours_3] => 
                    [opening_hours_4] => 
                    [opening_hours_5] => 
                    [opening_hours_6] => 
                    [opening_hours_7] => 
                )

            [23] => Array
                (
                    [__className] => Premise
                    [id] => 5063
                    [name] => U Labužníka
                    [street] => Náměstí T.G.M 404
                    [city] => Třinec
                    [zip] => 739 61
                    [phone] => 
                    [mobile] => 558 333 767 - p
                    [note] => 1x 14  DNŮ  ověřovat ČO  PO / 6  Kč Apetol /28 Kč  je to vedle Arcade, na menuboxy má svého dodavatele,nechce měnit /stará smlouva ze dne 12.8.2008// 27.5.2011 dodán barel, od 5 hod do 17 hod
                    [customer_id] => 14509
                    [color] => 
                    [article_prices] => asdfasdfasdf
                    [currency] => CZK
                    [supplier_id] => 1
                    [contact_sales_name] => 
                    [contact_sales_phone] => 
                    [contact_sales_mobile] => 
                    [contact_sales_email] => 
                    [contact_supply_name] => 
                    [contact_supply_phone] => 
                    [contact_supply_mobile] => 
                    [contact_supply_email] => 
                    [opening_hours_comment] => 
                    [do_amount] => 
                    [do_comment] => 
                    [frequency] => 
                    [do_price] => 
                    [co_amount] => 
                    [co_frequency] => 
                    [co_kind_id] => 
                    [co_price] => 
                    [co_comment] => 
                    [fryer_size] => 
                    [competition_id] => 
                    [competition_comment] => 
                    [other_goods] => 
                    [contract_date] => 
                    [franchise_id] => 
                    [country] => 1
                    [city_code] => CZ0802598810
                    [post_code] => 739 61
                    [web_site] => 
                    [payment] => 0
                    [iscc] => 
                    [locationLatitude] => 49.669839900000000
                    [locationLongitude] => 18.679171300000007
                    [expenseCashVersion] => 
                    [expenseCashNumber] => 
                    [expenseInvoiceVersion] => 
                    [expenseInvoiceNumber] => 
                    [expenseCashDebtVersion] => 
                    [expenseCashDebtNumber] => 
                    [opening_hours_1] => 1
                    [opening_hours_2] => 1
                    [opening_hours_3] => 1
                    [opening_hours_4] => 1
                    [opening_hours_5] => 1
                    [opening_hours_6] => 1
                    [opening_hours_7] => 1
                )

            [24] => Array
                (
                    [__className] => Premise
                    [id] => 5404
                    [name] => ŠJ 
                    [street] => Jiráskova 888
                    [city] => Benešov
                    [zip] => 256 01
                    [phone] => 
                    [mobile] => 
                    [note] => smlouva ze dne 26.2.2009
                    [customer_id] => 4608
                    [color] => 
                    [article_prices] => asdfasdfasdf
                    [currency] => CZK
                    [supplier_id] => 1
                    [contact_sales_name] => 
                    [contact_sales_phone] => 
                    [contact_sales_mobile] => 
                    [contact_sales_email] => 
                    [contact_supply_name] => 
                    [contact_supply_phone] => 
                    [contact_supply_mobile] => 
                    [contact_supply_email] => 
                    [opening_hours_comment] => 
                    [do_amount] => 
                    [do_comment] => 
                    [frequency] => 
                    [do_price] => 
                    [co_amount] => 
                    [co_frequency] => 
                    [co_kind_id] => 
                    [co_price] => 
                    [co_comment] => 
                    [fryer_size] => 
                    [competition_id] => 
                    [competition_comment] => 
                    [other_goods] => 
                    [contract_date] => 
                    [franchise_id] => 
                    [country] => 
                    [city_code] => CZ0201529303
                    [post_code] => 256 01
                    [web_site] => 
                    [payment] => 0
                    [iscc] => 
                    [locationLatitude] => 49.780821700000000
                    [locationLongitude] => 14.688174500000000
                    [expenseCashVersion] => 
                    [expenseCashNumber] => 
                    [expenseInvoiceVersion] => 
                    [expenseInvoiceNumber] => 
                    [expenseCashDebtVersion] => 
                    [expenseCashDebtNumber] => 
                    [opening_hours_1] => 
                    [opening_hours_2] => 
                    [opening_hours_3] => 
                    [opening_hours_4] => 
                    [opening_hours_5] => 
                    [opening_hours_6] => 
                    [opening_hours_7] => 
                )

            [25] => Array
                (
                    [__className] => Premise
                    [id] => 5590
                    [name] => Školní jídelna
                    [street] => Komenského 365
                    [city] => Jílové u Prahy
                    [zip] => 254 01
                    [phone] => 
                    [mobile] => 
                    [note] => NS, ČISTÝ OLEJ NA FAKTURU
                    [customer_id] => 4757
                    [color] => 
                    [article_prices] => asdfasdfasdf
                    [currency] => CZK
                    [supplier_id] => 1
                    [contact_sales_name] => 
                    [contact_sales_phone] => 
                    [contact_sales_mobile] => 
                    [contact_sales_email] => 
                    [contact_supply_name] => 
                    [contact_supply_phone] => 
                    [contact_supply_mobile] => 
                    [contact_supply_email] => 
                    [opening_hours_comment] => 
                    [do_amount] => 
                    [do_comment] => 
                    [frequency] => 
                    [do_price] => 
                    [co_amount] => 
                    [co_frequency] => 
                    [co_kind_id] => 
                    [co_price] => 
                    [co_comment] => 
                    [fryer_size] => 
                    [competition_id] => 
                    [competition_comment] => 
                    [other_goods] => 
                    [contract_date] => 
                    [franchise_id] => 
                    [country] => 
                    [city_code] => CZ020A539333
                    [post_code] => 254 01
                    [web_site] => 
                    [payment] => 0
                    [iscc] => 
                    [locationLatitude] => 49.897337300000000
                    [locationLongitude] => 14.499778699999979
                    [expenseCashVersion] => 
                    [expenseCashNumber] => 
                    [expenseInvoiceVersion] => 
                    [expenseInvoiceNumber] => 
                    [expenseCashDebtVersion] => 
                    [expenseCashDebtNumber] => 
                    [opening_hours_1] => 1
                    [opening_hours_2] => 1
                    [opening_hours_3] => 1
                    [opening_hours_4] => 1
                    [opening_hours_5] => 1
                    [opening_hours_6] => 1
                    [opening_hours_7] => 1
                )

            [26] => Array
                (
                    [__className] => Premise
                    [id] => 5142
                    [name] => Langoše 
                    [street] => TGM 191
                    [city] => Přerov
                    [zip] => 75002
                    [phone] => 
                    [mobile] => 
                    [note] => Smlouva ze dne 1/9/2008 + dán barel - smaží na akcích - takže nárazově - ozve se jak bude a domluvíme se p. Mračnová  
                    [customer_id] => 4404
                    [color] => 
                    [article_prices] => asdfasdfasdf
                    [currency] => CZK
                    [supplier_id] => 1
                    [contact_sales_name] => 
                    [contact_sales_phone] => 
                    [contact_sales_mobile] => 
                    [contact_sales_email] => 
                    [contact_supply_name] => 
                    [contact_supply_phone] => 
                    [contact_supply_mobile] => 
                    [contact_supply_email] => 
                    [opening_hours_comment] => 
                    [do_amount] => 
                    [do_comment] => 
                    [frequency] => 
                    [do_price] => 
                    [co_amount] => 
                    [co_frequency] => 
                    [co_kind_id] => 
                    [co_price] => 
                    [co_comment] => 
                    [fryer_size] => 
                    [competition_id] => 
                    [competition_comment] => 
                    [other_goods] => 
                    [contract_date] => 
                    [franchise_id] => 
                    [country] => 1
                    [city_code] => CZ0714511382
                    [post_code] => 75002
                    [web_site] => 
                    [payment] => 0
                    [iscc] => 
                    [locationLatitude] => 49.454817500000000
                    [locationLongitude] => 17.449163199999930
                    [expenseCashVersion] => 
                    [expenseCashNumber] => 
                    [expenseInvoiceVersion] => 
                    [expenseInvoiceNumber] => 
                    [expenseCashDebtVersion] => 
                    [expenseCashDebtNumber] => 
                    [opening_hours_1] => 1
                    [opening_hours_2] => 1
                    [opening_hours_3] => 1
                    [opening_hours_4] => 1
                    [opening_hours_5] => 1
                    [opening_hours_6] => 1
                    [opening_hours_7] => 1
                )

            [27] => Array
                (
                    [__className] => Premise
                    [id] => 7280
                    [name] => Restaurace Na kovárně
                    [street] => Foerstrova 330/1
                    [city] => Prostějov
                    [zip] => 796 01
                    [phone] => 
                    [mobile] => 777 641 154 maj
                    [note] => 11.10.2010 dovezen barel //18.10.2010 odvezeny 2 barely, k
                    [customer_id] => 15691
                    [color] => 
                    [article_prices] => asdfasdfasdf
                    [currency] => CZK
                    [supplier_id] => 1
                    [contact_sales_name] => 
                    [contact_sales_phone] => 
                    [contact_sales_mobile] => 
                    [contact_sales_email] => 
                    [contact_supply_name] => 
                    [contact_supply_phone] => 
                    [contact_supply_mobile] => 
                    [contact_supply_email] => 
                    [opening_hours_comment] => 
                    [do_amount] => 
                    [do_comment] => 
                    [frequency] => 
                    [do_price] => 
                    [co_amount] => 
                    [co_frequency] => 
                    [co_kind_id] => 
                    [co_price] => 
                    [co_comment] => 
                    [fryer_size] => 
                    [competition_id] => 
                    [competition_comment] => 
                    [other_goods] => 
                    [contract_date] => 
                    [franchise_id] => 
                    [country] => 
                    [city_code] => CZ0713589250
                    [post_code] => 796 01
                    [web_site] => 
                    [payment] => 0
                    [iscc] => 
                    [locationLatitude] => 49.466108600000000
                    [locationLongitude] => 17.083416500000000
                    [expenseCashVersion] => 
                    [expenseCashNumber] => 
                    [expenseInvoiceVersion] => 
                    [expenseInvoiceNumber] => 
                    [expenseCashDebtVersion] => 
                    [expenseCashDebtNumber] => 
                    [opening_hours_1] => 1
                    [opening_hours_2] => 1
                    [opening_hours_3] => 1
                    [opening_hours_4] => 1
                    [opening_hours_5] => 1
                    [opening_hours_6] => 1
                    [opening_hours_7] => 1
                )

            [28] => Array
                (
                    [__className] => Premise
                    [id] => 8150
                    [name] => Na Mánesce 
                    [street] => Rostislavova 845/12
                    [city] => Prostějov
                    [zip] => 796 01
                    [phone] => 
                    [mobile] => 
                    [note] => dod. 3.2.2011,  
                    [customer_id] => 10814
                    [color] => 
                    [article_prices] => asdfasdfasdf
                    [currency] => CZK
                    [supplier_id] => 1
                    [contact_sales_name] => 
                    [contact_sales_phone] => 
                    [contact_sales_mobile] => 
                    [contact_sales_email] => 
                    [contact_supply_name] => 
                    [contact_supply_phone] => 
                    [contact_supply_mobile] => 
                    [contact_supply_email] => 
                    [opening_hours_comment] => 
                    [do_amount] => 
                    [do_comment] => 
                    [frequency] => 
                    [do_price] => 
                    [co_amount] => 
                    [co_frequency] => 
                    [co_kind_id] => 
                    [co_price] => 
                    [co_comment] => 
                    [fryer_size] => 
                    [competition_id] => 
                    [competition_comment] => 
                    [other_goods] => 
                    [contract_date] => 
                    [franchise_id] => 
                    [country] => 
                    [city_code] => CZ0713589250
                    [post_code] => 796 01
                    [web_site] => 
                    [payment] => 0
                    [iscc] => 
                    [locationLatitude] => 49.471638000000000
                    [locationLongitude] => 17.102208400000000
                    [expenseCashVersion] => 
                    [expenseCashNumber] => 
                    [expenseInvoiceVersion] => 
                    [expenseInvoiceNumber] => 
                    [expenseCashDebtVersion] => 
                    [expenseCashDebtNumber] => 
                    [opening_hours_1] => 1
                    [opening_hours_2] => 1
                    [opening_hours_3] => 1
                    [opening_hours_4] => 1
                    [opening_hours_5] => 1
                    [opening_hours_6] => 1
                    [opening_hours_7] => 1
                )

            [29] => Array
                (
                    [__className] => Premise
                    [id] => 8161
                    [name] => Restaurace Jadran Club
                    [street] => Kostelní 79/17
                    [city] => Prostějov
                    [zip] => 796 01
                    [phone] => 
                    [mobile] => 776 211 716 p.M
                    [note] =>  dod. 3.2.2011
                    [customer_id] => 13321
                    [color] => 
                    [article_prices] => asdfasdfasdf
                    [currency] => CZK
                    [supplier_id] => 1
                    [contact_sales_name] => 
                    [contact_sales_phone] => 
                    [contact_sales_mobile] => 
                    [contact_sales_email] => 
                    [contact_supply_name] => 
                    [contact_supply_phone] => 
                    [contact_supply_mobile] => 
                    [contact_supply_email] => 
                    [opening_hours_comment] => 
                    [do_amount] => 
                    [do_comment] => 
                    [frequency] => 
                    [do_price] => 
                    [co_amount] => 
                    [co_frequency] => 
                    [co_kind_id] => 
                    [co_price] => 
                    [co_comment] => 
                    [fryer_size] => 
                    [competition_id] => 
                    [competition_comment] => 
                    [other_goods] => 
                    [contract_date] => 
                    [franchise_id] => 
                    [country] => 
                    [city_code] => CZ0713589250
                    [post_code] => 796 01
                    [web_site] => 
                    [payment] => 0
                    [iscc] => 
                    [locationLatitude] => 49.470581700000000
                    [locationLongitude] => 17.111055900000000
                    [expenseCashVersion] => 
                    [expenseCashNumber] => 
                    [expenseInvoiceVersion] => 
                    [expenseInvoiceNumber] => 
                    [expenseCashDebtVersion] => 
                    [expenseCashDebtNumber] => 
                    [opening_hours_1] => 1
                    [opening_hours_2] => 1
                    [opening_hours_3] => 1
                    [opening_hours_4] => 1
                    [opening_hours_5] => 1
                    [opening_hours_6] => 1
                    [opening_hours_7] => 1
                )

            [30] => Array
                (
                    [__className] => Premise
                    [id] => 8221
                    [name] => Restaurace U Labutě
                    [street] => Za Mlýnem 4
                    [city] => Přerov
                    [zip] => 750 02
                    [phone] => 
                    [mobile] => 
                    [note] => PO 28,80, maní nízkou produkci, když tak zavolají
                    [customer_id] => 5435
                    [color] => 
                    [article_prices] => asdfasdfasdf
                    [currency] => CZK
                    [supplier_id] => 1
                    [contact_sales_name] => 
                    [contact_sales_phone] => 
                    [contact_sales_mobile] => 
                    [contact_sales_email] => 
                    [contact_supply_name] => 
                    [contact_supply_phone] => 
                    [contact_supply_mobile] => 
                    [contact_supply_email] => 
                    [opening_hours_comment] => 
                    [do_amount] => 
                    [do_comment] => 
                    [frequency] => 
                    [do_price] => 
                    [co_amount] => 
                    [co_frequency] => 
                    [co_kind_id] => 
                    [co_price] => 
                    [co_comment] => 
                    [fryer_size] => 
                    [competition_id] => 
                    [competition_comment] => 
                    [other_goods] => 
                    [contract_date] => 
                    [franchise_id] => 
                    [country] => 
                    [city_code] => CZ0714511382
                    [post_code] => 750 02
                    [web_site] => 
                    [payment] => 0
                    [iscc] => 
                    [locationLatitude] => 49.458274400000000
                    [locationLongitude] => 17.450455700000000
                    [expenseCashVersion] => 
                    [expenseCashNumber] => 
                    [expenseInvoiceVersion] => 
                    [expenseInvoiceNumber] => 
                    [expenseCashDebtVersion] => 
                    [expenseCashDebtNumber] => 
                    [opening_hours_1] => 
                    [opening_hours_2] => 
                    [opening_hours_3] => 
                    [opening_hours_4] => 
                    [opening_hours_5] => 
                    [opening_hours_6] => 
                    [opening_hours_7] => 
                )

            [31] => Array
                (
                    [__className] => Premise
                    [id] => 8342
                    [name] => Mystic /č/
                    [street] => Plumlovská 18
                    [city] => Prostějov
                    [zip] => 796 01
                    [phone] => 
                    [mobile] => 
                    [note] => 
                    [customer_id] => 5911
                    [color] => 
                    [article_prices] => asdfasdfasdf
                    [currency] => CZK
                    [supplier_id] => 1
                    [contact_sales_name] => 
                    [contact_sales_phone] => 
                    [contact_sales_mobile] => 
                    [contact_sales_email] => 
                    [contact_supply_name] => 
                    [contact_supply_phone] => 
                    [contact_supply_mobile] => 
                    [contact_supply_email] => 
                    [opening_hours_comment] => 
                    [do_amount] => 
                    [do_comment] => 
                    [frequency] => 
                    [do_price] => 
                    [co_amount] => 
                    [co_frequency] => 
                    [co_kind_id] => 
                    [co_price] => 
                    [co_comment] => 
                    [fryer_size] => 
                    [competition_id] => 
                    [competition_comment] => 
                    [other_goods] => 
                    [contract_date] => 
                    [franchise_id] => 
                    [country] => 
                    [city_code] => CZ0713589250
                    [post_code] => 796 01
                    [web_site] => 
                    [payment] => 0
                    [iscc] => 
                    [locationLatitude] => 49.472930800000000
                    [locationLongitude] => 17.104951300000000
                    [expenseCashVersion] => 
                    [expenseCashNumber] => 
                    [expenseInvoiceVersion] => 
                    [expenseInvoiceNumber] => 
                    [expenseCashDebtVersion] => 
                    [expenseCashDebtNumber] => 
                    [opening_hours_1] => 
                    [opening_hours_2] => 
                    [opening_hours_3] => 
                    [opening_hours_4] => 
                    [opening_hours_5] => 
                    [opening_hours_6] => 
                    [opening_hours_7] => 
                )

        )

    [total] => 32
)
